{
  "products": [
    {
      "id": 1275,
      "brand_id": 10,
      "brand_name": "Dannmar",
      "sku": "7000",
      "family_name": "Dannmar 7000",
      "product_name": null,
      "description": null,
      "category": "four-post-lift",
      "capacity_lbs": null,
      "is_ali_certified": null,
      "ali_cert_date": null,
      "variant_skus": [],
      "status": "current",
      "source": "svi-catalog",
      "source_file": null,
      "notes": "Imported from SVI catalog (Above Ground 4-Post Lifts)",
      "image_url": null,
      "image_source_url": null,
      "image_fetched_at": null,
      "created_at": "2026-05-13T00:52:23.009923+00:00",
      "updated_at": "2026-05-13T00:52:23.009923+00:00",
      "documents": []
    },
    {
      "id": 1276,
      "brand_id": 10,
      "brand_name": "Dannmar",
      "sku": "D-12",
      "family_name": "Dannmar D-12",
      "product_name": null,
      "description": null,
      "category": "four-post-lift",
      "capacity_lbs": null,
      "is_ali_certified": null,
      "ali_cert_date": null,
      "variant_skus": [],
      "status": "current",
      "source": "svi-catalog",
      "source_file": null,
      "notes": "Imported from SVI catalog (Above Ground 4-Post Lifts)",
      "image_url": null,
      "image_source_url": null,
      "image_fetched_at": null,
      "created_at": "2026-05-13T00:52:23.009923+00:00",
      "updated_at": "2026-05-13T00:52:23.009923+00:00",
      "documents": []
    },
    {
      "id": 1269,
      "brand_id": 10,
      "brand_name": "Dannmar",
      "sku": "ADMIRAL 9000",
      "family_name": "Dannmar ADMIRAL 9000",
      "product_name": null,
      "description": null,
      "category": "two-post-lift",
      "capacity_lbs": null,
      "is_ali_certified": null,
      "ali_cert_date": null,
      "variant_skus": [],
      "status": "current",
      "source": "svi-catalog",
      "source_file": null,
      "notes": "Imported from SVI catalog (Above Ground 2-Post Lifts)",
      "image_url": null,
      "image_source_url": null,
      "image_fetched_at": null,
      "created_at": "2026-05-13T00:52:23.009923+00:00",
      "updated_at": "2026-05-13T00:52:23.009923+00:00",
      "documents": []
    }
  ],
  "total": 2256,
  "page": 1,
  "page_size": 3,
  "total_pages": 752
}